{
  "id": 4,
  "isSpecial": "false",
  "letters": "got",
  "words": [
    {
      "id": "1",
      "word": "got",
      "def": "Expressing obligation.",
      "type": "2",
      "additional stars": "0"
    },
    {
      "id": "2",
      "word": "go",
      "def": "Functioning correctly and ready for action; 'all systems are go' ",
      "type": "2",
      "additional stars": "0"
    },
    {
      "id": "3",
      "word": "to",
      "def": "Preposition",
      "type": "2",
      "additional stars": "0"
    }
  ]
}