{
  "id": 143,
  "isSpecial": "false",
  "letters": "doubt",
  "words": [
    {
      "id": "1",
      "word": "doubt",
      "def": "The state of being unsure of something ",
      "type": "2",
      "additional stars": "0"
    },
    {
      "id": "2",
      "word": "bout",
      "def": "(sports) a division during which one team is on the offensive ",
      "type": "2",
      "additional stars": "0"
    },
    {
      "id": "3",
      "word": "bot",
      "def": "Botfly larva; typically develops inside the body of a horse or sheep or human",
      "type": "2",
      "additional stars": "0"
    },
    {
      "id": "4",
      "word": "bud",
      "def": "A partially opened flower",
      "type": "2",
      "additional stars": "0"
    },
    {
      "id": "5",
      "word": "but",
      "def": "And nothing more; 'I was merely asking'; 'it is simply a matter of time'; 'just a scratch'; 'he was only a child'; 'hopes that last but a moment' ",
      "type": "2",
      "additional stars": "0"
    },
    {
      "id": "6",
      "word": "dot",
      "def": "A very small circular shape; 'a row of points'; 'draw lines between the dots' ",
      "type": "2",
      "additional stars": "0"
    },
    {
      "id": "7",
      "word": "dub",
      "def": "The new sounds added by dubbing",
      "type": "2",
      "additional stars": "0"
    },
    {
      "id": "8",
      "word": "out",
      "def": "Away from home; 'they went out last night'",
      "type": "2",
      "additional stars": "0"
    },
    {
      "id": "9",
      "word": "tod",
      "def": "Alone and on your own; 'don't just sit there on your tod'",
      "type": "2",
      "additional stars": "0"
    },
    {
      "id": "10",
      "word": "tub",
      "def": "A relatively large open container that you fill with water and use to wash the body ",
      "type": "2",
      "additional stars": "0"
    }
  ]
}