{
  "id": 8,
  "isSpecial": "false",
  "letters": "now",
  "words": [
    {
      "id": "1",
      "word": "now",
      "def": "In the historical present; at this point in the narration of a series of past events; 'President Kennedy now calls in the National Guard'; 'Washington now decides to cross the Delaware'; 'the ship is now listing to port'",
      "type": "2",
      "additional stars": "0"
    },
    {
      "id": "2",
      "word": "own",
      "def": "Belonging to or on behalf of a specified person (especially yourself); preceded by a possessive; 'for your own use'; 'do your own thing'; 'she makes her own clothes'; '`ain' is Scottish' ",
      "type": "2",
      "additional stars": "0"
    },
    {
      "id": "3",
      "word": "won",
      "def": "Not subject to defeat; 'with that move it's a won game' ",
      "type": "2",
      "additional stars": "0"
    },
    {
      "id": "4",
      "word": "no",
      "def": "Referring to the degree to which a certain quality is present; 'he was no heavier than a child' ",
      "type": "2",
      "additional stars": "0"
    },
    {
      "id": "5",
      "word": "on",
      "def": "With a forward motion; 'we drove along admiring the view'; 'the horse trotted along at a steady pace'; 'the circus traveled on to the next city'; 'move along'; 'march on' ",
      "type": "2",
      "additional stars": "0"
    }
  ]
}