{
  "id": 173,
  "isSpecial": "false",
  "letters": "regent",
  "words": [
    {
      "id": "1",
      "word": "regent",
      "def": "Acting or functioning as a regent or ruler; 'prince- regent'",
      "type": "2",
      "additional stars": "0"
    },
    {
      "id": "2",
      "word": "egret",
      "def": "Any of various usually white herons having long plumes during breeding season",
      "type": "1",
      "additional stars": "0"
    },
    {
      "id": "3",
      "word": "enter",
      "def": "To come or go into; 'the boat entered an area of shallow marshes' ",
      "type": "2",
      "additional stars": "0"
    },
    {
      "id": "4",
      "word": "genre",
      "def": "A kind of literary or artistic work",
      "type": "1",
      "additional stars": "0"
    },
    {
      "id": "5",
      "word": "green",
      "def": "Of the color between blue and yellow in the color spectrum; similar to the color of fresh grass; 'a green tree'; 'green fields'; 'green paint' ",
      "type": "2",
      "additional stars": "0"
    },
    {
      "id": "6",
      "word": "greet",
      "def": "Express greetings upon meeting someone ",
      "type": "1",
      "additional stars": "0"
    },
    {
      "id": "7",
      "word": "erne",
      "def": "Bulky greyish-brown eagle with a short wedge-shaped white tail; of Europe and Greenland ",
      "type": "1",
      "additional stars": "0"
    },
    {
      "id": "8",
      "word": "rent",
      "def": "A payment or series of payments made by the lessee to an owner for use of some property, facility, equipment, or service",
      "type": "2",
      "additional stars": "0"
    },
    {
      "id": "9",
      "word": "rete",
      "def": "A network of intersecting blood vessels or intersecting nerves or intersecting lymph vessels ",
      "type": "1",
      "additional stars": "0"
    },
    {
      "id": "10",
      "word": "teen",
      "def": "Being of the age 13 through 19; 'teenage mothers'; 'the teen years' ",
      "type": "2",
      "additional stars": "0"
    },
    {
      "id": "11",
      "word": "tern",
      "def": "Small slender gull having narrow wings and a forked tail",
      "type": "1",
      "additional stars": "0"
    },
    {
      "id": "12",
      "word": "tree",
      "def": "A tall perennial woody plant having a main trunk and branches forming a distinct elevated crown; includes both gymnosperms and angiosperms",
      "type": "2",
      "additional stars": "0"
    },
    {
      "id": "13",
      "word": "ern",
      "def": "Bulky greyish-brown eagle with a short wedge-shaped white tail; of Europe and Greenland ",
      "type": "1",
      "additional stars": "0"
    },
    {
      "id": "14",
      "word": "get",
      "def": "A return on a shot that seemed impossible to reach and would normally have resulted in a point for the opponent",
      "type": "2",
      "additional stars": "0"
    },
    {
      "id": "15",
      "word": "net",
      "def": "Remaining after all deductions; 'net profit' ",
      "type": "2",
      "additional stars": "0"
    },
    {
      "id": "16",
      "word": "ret",
      "def": "Place (flax, hemp, or jute) in liquid so as to promote loosening of the fibers from the woody tissue",
      "type": "1",
      "additional stars": "0"
    },
    {
      "id": "17",
      "word": "ten",
      "def": "Being one more than nine ",
      "type": "2",
      "additional stars": "0"
    }
  ]
}