{
  "id": 61,
  "isSpecial": "false",
  "letters": "lemon",
  "words": [
    {
      "id": "1",
      "word": "lemon",
      "def": "Yellow oval fruit with juicy acidic flesh",
      "type": "2",
      "additional stars": "0"
    },
    {
      "id": "2",
      "word": "melon",
      "def": "Any of numerous fruits of the gourd family having a hard rind and sweet juicy flesh",
      "type": "2",
      "additional stars": "0"
    },
    {
      "id": "3",
      "word": "lone",
      "def": "Lacking companions or companionship; 'he was alone when we met him'; 'she is alone much of the time'; 'the lone skier on the mountain'; 'a lonely fisherman stood on a tuft of gravel'; 'a lonely soul'; 'a solitary traveler' ",
      "type": "2",
      "additional stars": "0"
    },
    {
      "id": "4",
      "word": "mole",
      "def": "The molecular weight of a substance expressed in grams; the basic unit of amount of substance adopted under the Systeme International d'Unites ",
      "type": "2",
      "additional stars": "0"
    },
    {
      "id": "5",
      "word": "omen",
      "def": "A sign of something about to happen; 'he looked for an omen before going into battle' ",
      "type": "2",
      "additional stars": "0"
    },
    {
      "id": "6",
      "word": "emo",
      "def": "A particular style of hardcore punk rock",
      "type": "2",
      "additional stars": "0"
    },
    {
      "id": "7",
      "word": "men",
      "def": "The force of workers available ",
      "type": "2",
      "additional stars": "0"
    },
    {
      "id": "8",
      "word": "one",
      "def": "Used of a single unit or thing; not two or more; '`ane' is Scottish' ",
      "type": "2",
      "additional stars": "0"
    }
  ]
}