{
  "id": 103,
  "isSpecial": "false",
  "letters": "baker",
  "words": [
    {
      "id": "1",
      "word": "baker",
      "def": "Someone who bakes commercially",
      "type": "2",
      "additional stars": "0"
    },
    {
      "id": "2",
      "word": "brake",
      "def": "A restraint used to slow or stop a vehicle",
      "type": "2",
      "additional stars": "0"
    },
    {
      "id": "3",
      "word": "break",
      "def": "Some abrupt occurrence that interrupts an ongoing activity; 'the telephone is an annoying interruption'; 'there was a break in the action when a player was hurt' ",
      "type": "2",
      "additional stars": "5"
    },
    {
      "id": "4",
      "word": "bake",
      "def": "Cook and make edible by putting in a hot oven; 'bake the potatoes'",
      "type": "2",
      "additional stars": "0"
    },
    {
      "id": "5",
      "word": "bare",
      "def": "Completely unclothed; 'bare bodies'; 'naked from the waist up'; 'a nude model' ",
      "type": "2",
      "additional stars": "0"
    },
    {
      "id": "6",
      "word": "bark",
      "def": "Tough protective covering of the woody stems and roots of trees and other woody plants",
      "type": "1",
      "additional stars": "0"
    },
    {
      "id": "7",
      "word": "beak",
      "def": "Beaklike mouth of animals other than birds (e.g., turtles)",
      "type": "2",
      "additional stars": "0"
    },
    {
      "id": "8",
      "word": "bear",
      "def": "Massive plantigrade carnivorous or omnivorous mammals with long shaggy coats and strong claws",
      "type": "2",
      "additional stars": "0"
    },
    {
      "id": "9",
      "word": "berk",
      "def": "A stupid person who is easy to take advantage of",
      "type": "1",
      "additional stars": "0"
    },
    {
      "id": "10",
      "word": "brae",
      "def": "A slope or hillside",
      "type": "1",
      "additional stars": "0"
    },
    {
      "id": "11",
      "word": "rake",
      "def": "A dissolute man in fashionable society ",
      "type": "2",
      "additional stars": "0"
    },
    {
      "id": "12",
      "word": "bar",
      "def": "A room or establishment where alcoholic drinks are served over a counter; 'he drowned his sorrows in whiskey at the bar' ",
      "type": "2",
      "additional stars": "0"
    },
    {
      "id": "13",
      "word": "bra",
      "def": "An undergarment worn by women to support their breasts ",
      "type": "2",
      "additional stars": "0"
    },
    {
      "id": "14",
      "word": "ear",
      "def": "The sense organ for hearing and equilibrium",
      "type": "2",
      "additional stars": "0"
    },
    {
      "id": "15",
      "word": "era",
      "def": "A period marked by distinctive character or reckoned from a fixed point or event ",
      "type": "2",
      "additional stars": "0"
    }
  ]
}