{
  "id": 145,
  "isSpecial": "false",
  "letters": "large",
  "words": [
    {
      "id": "1",
      "word": "glare",
      "def": "A light within the field of vision that is brighter than the brightness to which the eyes are adapted; 'a glare of sunlight' ",
      "type": "2",
      "additional stars": "0"
    },
    {
      "id": "2",
      "word": "lager",
      "def": "A camp defended by a circular formation of wagons ",
      "type": "1",
      "additional stars": "0"
    },
    {
      "id": "3",
      "word": "large",
      "def": "At a distance, wide of something (as of a mark)",
      "type": "2",
      "additional stars": "0"
    },
    {
      "id": "4",
      "word": "regal",
      "def": "Belonging to or befitting a supreme ruler; 'golden age of imperial splendor'; 'purple tyrant'; 'regal attire'; 'treated with royal acclaim'; 'the royal carriage of a stag's head' ",
      "type": "2",
      "additional stars": "0"
    },
    {
      "id": "5",
      "word": "gear",
      "def": "A toothed wheel that engages another toothed mechanism in order to change the speed or direction of transmitted motion ",
      "type": "2",
      "additional stars": "4"
    },
    {
      "id": "6",
      "word": "rage",
      "def": "A feeling of intense anger; 'hell hath no fury like a woman scorned'; 'his face turned red with rage' ",
      "type": "2",
      "additional stars": "0"
    },
    {
      "id": "7",
      "word": "rale",
      "def": "A rapid series of short loud sounds (as might be heard with a stethoscope in some types of respiratory disorders); 'the death rattle' ",
      "type": "2",
      "additional stars": "0"
    },
    {
      "id": "8",
      "word": "real",
      "def": "Used as intensifiers; `real' is sometimes used informally for `really'; `rattling' is informal; 'she was very gifted'; 'he played very well'; 'a really enjoyable evening'; 'I'm real sorry about it'; 'a rattling good yarn' ",
      "type": "2",
      "additional stars": "0"
    },
    {
      "id": "9",
      "word": "age",
      "def": "How long something has existed; 'it was replaced because of its age'",
      "type": "2",
      "additional stars": "0"
    },
    {
      "id": "10",
      "word": "ale",
      "def": "A general name for beer made with a top fermenting yeast; in some of the United States an ale is (by law) a brew of more than 4% alcohol by volume",
      "type": "1",
      "additional stars": "0"
    },
    {
      "id": "11",
      "word": "are",
      "def": "A unit of surface area equal to 100 square meters ",
      "type": "2",
      "additional stars": "0"
    },
    {
      "id": "12",
      "word": "ear",
      "def": "The sense organ for hearing and equilibrium",
      "type": "2",
      "additional stars": "0"
    },
    {
      "id": "13",
      "word": "era",
      "def": "A period marked by distinctive character or reckoned from a fixed point or event ",
      "type": "2",
      "additional stars": "0"
    },
    {
      "id": "14",
      "word": "lag",
      "def": "The act of slowing down or falling behind ",
      "type": "2",
      "additional stars": "0"
    },
    {
      "id": "15",
      "word": "leg",
      "def": "A human limb; commonly used to refer to a whole limb but technically only the part of the limb between the knee and ankle",
      "type": "2",
      "additional stars": "0"
    },
    {
      "id": "16",
      "word": "rag",
      "def": "A small piece of cloth or paper ",
      "type": "2",
      "additional stars": "0"
    }
  ]
}