{
  "id": 14,
  "isSpecial": "false",
  "letters": "tour",
  "words": [
    {
      "id": "1",
      "word": "rout",
      "def": "A disorderly crowd of people ",
      "type": "2",
      "additional stars": "0"
    },
    {
      "id": "2",
      "word": "tour",
      "def": "A journey or route all the way around a particular place or area; 'they took an extended tour of Europe'; 'we took a quick circuit of the park'; 'a ten-day coach circuit of the island' ",
      "type": "2",
      "additional stars": "0"
    },
    {
      "id": "3",
      "word": "our",
      "def": "Belonging to us.",
      "type": "2",
      "additional stars": "0"
    },
    {
      "id": "4",
      "word": "out",
      "def": "Away from home; 'they went out last night'",
      "type": "2",
      "additional stars": "0"
    },
    {
      "id": "5",
      "word": "tor",
      "def": "A prominent rock or pile of rocks on a hill",
      "type": "2",
      "additional stars": "0"
    }
  ]
}