{
  "id": 22,
  "isSpecial": "false",
  "letters": "deal",
  "words": [
    {
      "id": "1",
      "word": "dale",
      "def": "An open river valley (in a hilly area)",
      "type": "2",
      "additional stars": "0"
    },
    {
      "id": "2",
      "word": "deal",
      "def": "A particular instance of buying or selling; 'it was a package deal'; 'I had no further trade with him'; 'he's a master of the business deal' ",
      "type": "2",
      "additional stars": "0"
    },
    {
      "id": "3",
      "word": "lade",
      "def": "Remove with or as if with a ladle; 'ladle the water out of the bowl' ",
      "type": "2",
      "additional stars": "0"
    },
    {
      "id": "4",
      "word": "lead",
      "def": "An advantage held by a competitor in a race; 'he took the lead at the last turn'",
      "type": "2",
      "additional stars": "0"
    },
    {
      "id": "5",
      "word": "ale",
      "def": "A general name for beer made with a top fermenting yeast; in some of the United States an ale is (by law) a brew of more than 4% alcohol by volume",
      "type": "1",
      "additional stars": "0"
    },
    {
      "id": "6",
      "word": "eld",
      "def": "A late time of life; 'old age is not for sissies'; 'he's showing his years'; 'age hasn't slowed him down at all'; 'a beard white with eld'; 'on the brink of geezerhood' ",
      "type": "2",
      "additional stars": "0"
    },
    {
      "id": "7",
      "word": "lad",
      "def": "A boy or man; 'that chap is your host'; 'there's a fellow at the door'; 'he's a likable cuss'; 'he's a good bloke' ",
      "type": "1",
      "additional stars": "0"
    }
  ]
}