{
  "id": 95,
  "isSpecial": "false",
  "letters": "event",
  "words": [
    {
      "id": "1",
      "word": "event",
      "def": "Something that happens at a given place and time",
      "type": "2",
      "additional stars": "2"
    },
    {
      "id": "2",
      "word": "even",
      "def": "Used as an intensive especially to indicate something unexpected; 'even an idiot knows that'; 'declined even to consider the idea'; 'I don't have even a dollar!'",
      "type": "2",
      "additional stars": "0"
    },
    {
      "id": "3",
      "word": "neve",
      "def": "The upper part of a glacier (beyond the limit of perpetual snow) where the snow turns to ice",
      "type": "1",
      "additional stars": "0"
    },
    {
      "id": "4",
      "word": "teen",
      "def": "Being of the age 13 through 19; 'teenage mothers'; 'the teen years' ",
      "type": "2",
      "additional stars": "0"
    },
    {
      "id": "5",
      "word": "vent",
      "def": "A hole for the escape of gas or air ",
      "type": "2",
      "additional stars": "0"
    },
    {
      "id": "6",
      "word": "net",
      "def": "Remaining after all deductions; 'net profit' ",
      "type": "2",
      "additional stars": "0"
    },
    {
      "id": "7",
      "word": "tee",
      "def": "The starting place for each hole on a golf course; 'they were waiting on the first tee' ",
      "type": "2",
      "additional stars": "0"
    },
    {
      "id": "8",
      "word": "ten",
      "def": "Being one more than nine ",
      "type": "2",
      "additional stars": "0"
    },
    {
      "id": "9",
      "word": "vet",
      "def": "A doctor who practices veterinary medicine ",
      "type": "2",
      "additional stars": "0"
    }
  ]
}