{
  "id": 129,
  "isSpecial": "false",
  "letters": "trout",
  "words": [
    {
      "id": "1",
      "word": "trout",
      "def": "Flesh of any of several primarily freshwater game and food fishes",
      "type": "2",
      "additional stars": "0"
    },
    {
      "id": "2",
      "word": "tutor",
      "def": "A person who gives private instruction (as in singing, acting, etc.) ",
      "type": "2",
      "additional stars": "0"
    },
    {
      "id": "3",
      "word": "rout",
      "def": "A disorderly crowd of people ",
      "type": "2",
      "additional stars": "0"
    },
    {
      "id": "4",
      "word": "tour",
      "def": "A journey or route all the way around a particular place or area; 'they took an extended tour of Europe'; 'we took a quick circuit of the park'; 'a ten-day coach circuit of the island' ",
      "type": "2",
      "additional stars": "0"
    },
    {
      "id": "5",
      "word": "tout",
      "def": "Someone who buys tickets to an event in order to resell them at a profit ",
      "type": "2",
      "additional stars": "0"
    },
    {
      "id": "6",
      "word": "trot",
      "def": "A slow pace of running ",
      "type": "2",
      "additional stars": "0"
    },
    {
      "id": "7",
      "word": "our",
      "def": "Belonging to us.",
      "type": "1",
      "additional stars": "0"
    },
    {
      "id": "8",
      "word": "out",
      "def": "Away from home; 'they went out last night'",
      "type": "2",
      "additional stars": "0"
    },
    {
      "id": "9",
      "word": "rot",
      "def": "A state of decay usually accompanied by an offensive odor ",
      "type": "2",
      "additional stars": "0"
    },
    {
      "id": "10",
      "word": "rut",
      "def": "A groove or furrow (especially one in soft earth caused by wheels)",
      "type": "2",
      "additional stars": "0"
    },
    {
      "id": "11",
      "word": "tor",
      "def": "A prominent rock or pile of rocks on a hill",
      "type": "2",
      "additional stars": "0"
    },
    {
      "id": "12",
      "word": "tot",
      "def": "A small amount (especially of a drink); 'a tot of rum'",
      "type": "2",
      "additional stars": "0"
    }
  ]
}