{
  "id": 29,
  "isSpecial": "false",
  "letters": "dear",
  "words": [
    {
      "id": "1",
      "word": "dare",
      "def": "A challenge to do something dangerous or foolhardy; 'he could never refuse a dare' ",
      "type": "2",
      "additional stars": "0"
    },
    {
      "id": "2",
      "word": "dear",
      "def": "With affection; 'she loved him dearly'; 'he treats her affectionately' ",
      "type": "2",
      "additional stars": "0"
    },
    {
      "id": "3",
      "word": "read",
      "def": "Something that is read; 'the article was a very good read'",
      "type": "2",
      "additional stars": "0"
    },
    {
      "id": "4",
      "word": "are",
      "def": "A unit of surface area equal to 100 square meters ",
      "type": "2",
      "additional stars": "0"
    },
    {
      "id": "5",
      "word": "ear",
      "def": "The sense organ for hearing and equilibrium",
      "type": "2",
      "additional stars": "0"
    },
    {
      "id": "6",
      "word": "era",
      "def": "A period marked by distinctive character or reckoned from a fixed point or event ",
      "type": "2",
      "additional stars": "0"
    },
    {
      "id": "7",
      "word": "red",
      "def": "Of a color at the end of the color spectrum (next to orange); resembling the color of blood or cherries or tomatoes or rubies ",
      "type": "2",
      "additional stars": "0"
    }
  ]
}