{
  "id": 117,
  "isSpecial": "false",
  "letters": "state",
  "words": [
    {
      "id": "1",
      "word": "state",
      "def": "The territory occupied by one of the constituent administrative districts of a nation; 'his state is in the deep south' ",
      "type": "2",
      "additional stars": "0"
    },
    {
      "id": "2",
      "word": "taste",
      "def": "The sensation that results when taste buds in the tongue and throat convey information about the chemical composition of a soluble stimulus; 'the candy left him with a bad taste'; 'the melon had a delicious taste' ",
      "type": "2",
      "additional stars": "0"
    },
    {
      "id": "3",
      "word": "testa",
      "def": "Protective outer layer of seeds of flowering plants ",
      "type": "1",
      "additional stars": "0"
    },
    {
      "id": "4",
      "word": "east",
      "def": "To, toward, or in the east; 'we travelled east for several miles'; 'located east of Rome'",
      "type": "2",
      "additional stars": "0"
    },
    {
      "id": "5",
      "word": "sate",
      "def": "Fill to satisfaction; 'I am sated' ",
      "type": "2",
      "additional stars": "0"
    },
    {
      "id": "6",
      "word": "seat",
      "def": "A space reserved for sitting (as in a theater or on a train or airplane); 'he booked their seats in advance'; 'he sat in someone else's place' ",
      "type": "2",
      "additional stars": "0"
    },
    {
      "id": "7",
      "word": "seta",
      "def": "Stalk of a moss capsule",
      "type": "1",
      "additional stars": "0"
    },
    {
      "id": "8",
      "word": "sett",
      "def": "Rectangular paving stone with curved top; once used to make roads ",
      "type": "1",
      "additional stars": "0"
    },
    {
      "id": "9",
      "word": "teat",
      "def": "The small projection of a mammary gland ",
      "type": "1",
      "additional stars": "0"
    },
    {
      "id": "10",
      "word": "test",
      "def": "Trying something to find out about it; 'a sample for ten days free trial'; 'a trial of progesterone failed to relieve the pain' ",
      "type": "2",
      "additional stars": "0"
    },
    {
      "id": "11",
      "word": "eat",
      "def": "Take in solid food; 'She was eating a banana'; 'What did you eat for dinner last night?'",
      "type": "2",
      "additional stars": "0"
    },
    {
      "id": "12",
      "word": "sea",
      "def": "A division of an ocean or a large body of salt water partially enclosed by land",
      "type": "2",
      "additional stars": "0"
    },
    {
      "id": "13",
      "word": "set",
      "def": "(usually followed by `to' or `for') on the point of or strongly disposed; 'in no fit state to continue'; 'fit to drop'; 'laughing fit to burst'; 'she was fit to scream'; 'primed for a fight'; 'we are set to go at any time' ",
      "type": "2",
      "additional stars": "0"
    },
    {
      "id": "14",
      "word": "tea",
      "def": "A beverage made by steeping tea leaves in water; 'iced tea is a cooling drink'",
      "type": "2",
      "additional stars": "0"
    }
  ]
}