{
  "id": 189,
  "isSpecial": "false",
  "letters": "locket",
  "words": [
    {
      "id": "1",
      "word": "locket",
      "def": "A small ornamental case; usually contains a picture or a lock of hair and is worn on a necklace",
      "type": "2",
      "additional stars": "0"
    },
    {
      "id": "2",
      "word": "clot",
      "def": "A lump of material formed from the content of a liquid ",
      "type": "2",
      "additional stars": "0"
    },
    {
      "id": "3",
      "word": "cole",
      "def": "A hardy cabbage with coarse curly leaves that do not form a head ",
      "type": "2",
      "additional stars": "0"
    },
    {
      "id": "4",
      "word": "colt",
      "def": "A young male horse under the age of four",
      "type": "2",
      "additional stars": "0"
    },
    {
      "id": "5",
      "word": "cote",
      "def": "A small shelter for domestic animals (as sheep or pigeons)",
      "type": "1",
      "additional stars": "0"
    },
    {
      "id": "6",
      "word": "kelt",
      "def": "A member of a European people who once occupied Britain and Spain and Gaul prior to Roman times ",
      "type": "2",
      "additional stars": "0"
    },
    {
      "id": "7",
      "word": "lock",
      "def": "A fastener fitted to a door or drawer to keep it firmly closed",
      "type": "2",
      "additional stars": "0"
    },
    {
      "id": "8",
      "word": "col",
      "def": "A pass between mountain peaks ",
      "type": "2",
      "additional stars": "0"
    },
    {
      "id": "9",
      "word": "cot",
      "def": "A sheath worn to protect a finger ",
      "type": "1",
      "additional stars": "0"
    },
    {
      "id": "10",
      "word": "elk",
      "def": "Large northern deer with enormous flattened antlers in the male; called `elk' in Europe and `moose' in North America ",
      "type": "2",
      "additional stars": "0"
    },
    {
      "id": "11",
      "word": "let",
      "def": "A brutal terrorist group active in Kashmir; fights against India with the goal of restoring Islamic rule of India; 'Lashkar-e-Toiba has committed mass murders of civilian Hindus' ",
      "type": "2",
      "additional stars": "0"
    },
    {
      "id": "12",
      "word": "lot",
      "def": "(often followed by `of') a large number or amount or extent; 'a batch of letters'; 'a deal of trouble'; 'a lot of money'; 'he made a mint on the stock market'; 'see the rest of the winners in our huge passel of photos'; 'it must have cost p...",
      "type": "2",
      "additional stars": "0"
    },
    {
      "id": "13",
      "word": "toe",
      "def": "One of the digits of the foot",
      "type": "1",
      "additional stars": "0"
    }
  ]
}