{
  "id": 123,
  "isSpecial": "false",
  "letters": "tough",
  "words": [
    {
      "id": "1",
      "word": "ought",
      "def": "Indicating duty or obligation.",
      "type": "2",
      "additional stars": "0"
    },
    {
      "id": "2",
      "word": "tough",
      "def": "Not given to gentleness or sentimentality; 'a tough character' ",
      "type": "2",
      "additional stars": "5"
    },
    {
      "id": "3",
      "word": "goth",
      "def": "A crude uncouth ill-bred person lacking culture or refinement ",
      "type": "2",
      "additional stars": "0"
    },
    {
      "id": "4",
      "word": "gout",
      "def": "A painful inflammation of the big toe and foot caused by defects in uric acid metabolism resulting in deposits of the acid and its salts in the blood and joints ",
      "type": "1",
      "additional stars": "0"
    },
    {
      "id": "5",
      "word": "thug",
      "def": "An aggressive and violent young criminal ",
      "type": "2",
      "additional stars": "0"
    },
    {
      "id": "6",
      "word": "got",
      "def": "Expressing obligation.",
      "type": "2",
      "additional stars": "0"
    },
    {
      "id": "7",
      "word": "hog",
      "def": "A person regarded as greedy and pig-like ",
      "type": "2",
      "additional stars": "0"
    },
    {
      "id": "8",
      "word": "hot",
      "def": "Used of physical heat; having a high or higher than desirable temperature or giving off heat or feeling or causing a sensation of heat or burning; 'hot stove'; 'hot water'; 'a hot August day'; 'a hot stuffy room'; 'she's hot and tired'; 'a ...",
      "type": "2",
      "additional stars": "0"
    },
    {
      "id": "9",
      "word": "hug",
      "def": "A tight or amorous embrace; 'come here and give me a big hug' ",
      "type": "2",
      "additional stars": "0"
    },
    {
      "id": "10",
      "word": "out",
      "def": "Away from home; 'they went out last night'",
      "type": "2",
      "additional stars": "0"
    },
    {
      "id": "11",
      "word": "tog",
      "def": "Provide with clothes or put clothes on; 'Parents must feed and dress their child' ",
      "type": "2",
      "additional stars": "0"
    },
    {
      "id": "12",
      "word": "tug",
      "def": "A sudden abrupt pull ",
      "type": "2",
      "additional stars": "0"
    }
  ]
}