{
  "id": 195,
  "isSpecial": "false",
  "letters": "social",
  "words": [
    {
      "id": "1",
      "word": "social",
      "def": "Relating to human society and its members; 'social institutions'; 'societal evolution'; 'societal forces'; 'social legislation' ",
      "type": "2",
      "additional stars": "0"
    },
    {
      "id": "2",
      "word": "also",
      "def": "In addition; 'he has a Mercedes, too' ",
      "type": "2",
      "additional stars": "0"
    },
    {
      "id": "3",
      "word": "coal",
      "def": "Fossil fuel consisting of carbonized vegetable matter deposited in the Carboniferous period",
      "type": "2",
      "additional stars": "0"
    },
    {
      "id": "4",
      "word": "coil",
      "def": "A structure consisting of something wound in a continuous series of loops; 'a coil of rope' ",
      "type": "2",
      "additional stars": "0"
    },
    {
      "id": "5",
      "word": "cola",
      "def": "Large genus of African trees bearing kola nuts ",
      "type": "2",
      "additional stars": "0"
    },
    {
      "id": "6",
      "word": "laic",
      "def": "Characteristic of those who are not members of the clergy; 'set his collar in laic rather than clerical position'; 'the lay ministry' ",
      "type": "1",
      "additional stars": "0"
    },
    {
      "id": "7",
      "word": "sail",
      "def": "A large piece of fabric (usually canvas fabric) by means of which wind is used to propel a sailing vessel ",
      "type": "2",
      "additional stars": "0"
    },
    {
      "id": "8",
      "word": "silo",
      "def": "A cylindrical tower used for storing silage",
      "type": "2",
      "additional stars": "0"
    },
    {
      "id": "9",
      "word": "soil",
      "def": "The state of being covered with unclean things ",
      "type": "2",
      "additional stars": "0"
    },
    {
      "id": "10",
      "word": "ail",
      "def": "Aromatic bulb used as seasoning ",
      "type": "2",
      "additional stars": "0"
    },
    {
      "id": "11",
      "word": "oil",
      "def": "A slippery or viscous liquid or liquefiable substance not miscible with water",
      "type": "1",
      "additional stars": "0"
    },
    {
      "id": "12",
      "word": "sac",
      "def": "An enclosed space; 'the trapped miners found a pocket of air' ",
      "type": "2",
      "additional stars": "0"
    },
    {
      "id": "13",
      "word": "sol",
      "def": "A colloid that has a continuous liquid phase in which a solid is suspended in a liquid ",
      "type": "1",
      "additional stars": "0"
    }
  ]
}