{
  "id": 109,
  "isSpecial": "false",
  "letters": "often",
  "words": [
    {
      "id": "1",
      "word": "often",
      "def": "Many times at short intervals; 'we often met over a cup of coffee' ",
      "type": "2",
      "additional stars": "0"
    },
    {
      "id": "2",
      "word": "font",
      "def": "A specific size and style of type within a type family ",
      "type": "2",
      "additional stars": "0"
    },
    {
      "id": "3",
      "word": "note",
      "def": "A brief written record; 'he made a note of the appointment'",
      "type": "2",
      "additional stars": "0"
    },
    {
      "id": "4",
      "word": "tone",
      "def": "The quality of a person's voice; 'he began in a conversational tone'; 'he spoke in a nervous tone of voice' ",
      "type": "2",
      "additional stars": "0"
    },
    {
      "id": "5",
      "word": "foe",
      "def": "An armed adversary (especially a member of an opposing military force); 'a soldier must be prepared to kill his enemies' ",
      "type": "2",
      "additional stars": "0"
    },
    {
      "id": "6",
      "word": "net",
      "def": "Remaining after all deductions; 'net profit' ",
      "type": "2",
      "additional stars": "0"
    },
    {
      "id": "7",
      "word": "not",
      "def": "Negation of a word or group of words; 'he does not speak French'; 'she is not going'; 'they are not friends'; 'not many'; 'not much'; 'not at all' ",
      "type": "2",
      "additional stars": "0"
    },
    {
      "id": "8",
      "word": "oft",
      "def": "Many times at short intervals; 'we often met over a cup of coffee' ",
      "type": "1",
      "additional stars": "0"
    },
    {
      "id": "9",
      "word": "one",
      "def": "Used of a single unit or thing; not two or more; '`ane' is Scottish' ",
      "type": "2",
      "additional stars": "0"
    },
    {
      "id": "10",
      "word": "ten",
      "def": "Being one more than nine ",
      "type": "2",
      "additional stars": "0"
    },
    {
      "id": "11",
      "word": "toe",
      "def": "One of the digits of the foot",
      "type": "2",
      "additional stars": "0"
    },
    {
      "id": "12",
      "word": "ton",
      "def": "A United States unit of weight equivalent to 2000 pounds ",
      "type": "1",
      "additional stars": "0"
    }
  ]
}