{
  "id": 166,
  "isSpecial": "false",
  "letters": "store",
  "words": [
    {
      "id": "1",
      "word": "store",
      "def": "A mercantile establishment for the retail sale of goods or services; 'he bought it at a shop on Cape Cod' ",
      "type": "2",
      "additional stars": "0"
    },
    {
      "id": "2",
      "word": "torse",
      "def": "A twist of cloth or wreath underneath and part of a crest. Always shown as six twists, the first tincture being the tincture of the field, the second the tincture of the metal, and so on.",
      "type": "2",
      "additional stars": "0"
    },
    {
      "id": "3",
      "word": "erst",
      "def": "At a previous time; 'at one time he loved her'; 'her erstwhile writing'; 'she was a dancer once'; ",
      "type": "1",
      "additional stars": "0"
    },
    {
      "id": "4",
      "word": "rest",
      "def": "Something left after other parts have been taken away; 'there was no remainder'; 'he threw away the rest'; 'he took what he wanted and I got the balance' ",
      "type": "2",
      "additional stars": "0"
    },
    {
      "id": "5",
      "word": "rose",
      "def": "Of something having a dusty purplish pink color; 'the roseate glow of dawn' ",
      "type": "2",
      "additional stars": "0"
    },
    {
      "id": "6",
      "word": "rote",
      "def": "Memorization by repetition ",
      "type": "2",
      "additional stars": "0"
    },
    {
      "id": "7",
      "word": "sore",
      "def": "Hurting; 'the tender spot on his jaw' ",
      "type": "2",
      "additional stars": "0"
    },
    {
      "id": "8",
      "word": "sort",
      "def": "A category of things distinguished by some common characteristic or quality; 'sculpture is a form of art'; 'what kinds of desserts are there?' ",
      "type": "2",
      "additional stars": "0"
    },
    {
      "id": "9",
      "word": "tore",
      "def": "Commonly the lowest molding at the base of a column ",
      "type": "1",
      "additional stars": "0"
    },
    {
      "id": "10",
      "word": "ore",
      "def": "A mineral that contains metal that is valuable enough to be mined",
      "type": "2",
      "additional stars": "0"
    },
    {
      "id": "11",
      "word": "res",
      "def": "A widely distributed system consisting of all the cells able to ingest bacteria or colloidal particles etc, except for certain white blood cells ",
      "type": "1",
      "additional stars": "0"
    },
    {
      "id": "12",
      "word": "ret",
      "def": "Place (flax, hemp, or jute) in liquid so as to promote loosening of the fibers from the woody tissue",
      "type": "2",
      "additional stars": "0"
    },
    {
      "id": "13",
      "word": "roe",
      "def": "Fish eggs or egg-filled ovary; having a grainy texture ",
      "type": "2",
      "additional stars": "0"
    },
    {
      "id": "14",
      "word": "rot",
      "def": "A state of decay usually accompanied by an offensive odor ",
      "type": "2",
      "additional stars": "0"
    },
    {
      "id": "15",
      "word": "set",
      "def": "(usually followed by `to' or `for') on the point of or strongly disposed; 'in no fit state to continue'; 'fit to drop'; 'laughing fit to burst'; 'she was fit to scream'; 'primed for a fight'; 'we are set to go at any time' ",
      "type": "2",
      "additional stars": "0"
    },
    {
      "id": "16",
      "word": "sot",
      "def": "A chronic drinker ",
      "type": "2",
      "additional stars": "0"
    },
    {
      "id": "17",
      "word": "toe",
      "def": "One of the digits of the foot",
      "type": "2",
      "additional stars": "0"
    },
    {
      "id": "18",
      "word": "tor",
      "def": "A prominent rock or pile of rocks on a hill",
      "type": "2",
      "additional stars": "0"
    }
  ]
}