{
  "id": 163,
  "isSpecial": "false",
  "letters": "steam",
  "words": [
    {
      "id": "1",
      "word": "steam",
      "def": "Water at boiling temperature diffused in the atmosphere",
      "type": "2",
      "additional stars": "5"
    },
    {
      "id": "2",
      "word": "mast",
      "def": "A vertical spar for supporting sails",
      "type": "2",
      "additional stars": "0"
    },
    {
      "id": "3",
      "word": "mate",
      "def": "The officer below the master on a commercial ship ",
      "type": "2",
      "additional stars": "0"
    },
    {
      "id": "4",
      "word": "meat",
      "def": "The flesh of animals (including fishes and birds and snails) used as food",
      "type": "2",
      "additional stars": "0"
    },
    {
      "id": "5",
      "word": "same",
      "def": "Same in identity; 'the same man I saw yesterday'; 'never wore the same dress twice'; 'this road is the same one we were on yesterday'; 'on the same side of the street' ",
      "type": "2",
      "additional stars": "0"
    },
    {
      "id": "6",
      "word": "sate",
      "def": "Fill to satisfaction; 'I am sated' ",
      "type": "2",
      "additional stars": "0"
    },
    {
      "id": "7",
      "word": "seam",
      "def": "Joint consisting of a line formed by joining two pieces",
      "type": "2",
      "additional stars": "0"
    },
    {
      "id": "8",
      "word": "seat",
      "def": "A space reserved for sitting (as in a theater or on a train or airplane); 'he booked their seats in advance'; 'he sat in someone else's place' ",
      "type": "2",
      "additional stars": "0"
    },
    {
      "id": "9",
      "word": "seta",
      "def": "Stalk of a moss capsule",
      "type": "1",
      "additional stars": "0"
    },
    {
      "id": "10",
      "word": "stem",
      "def": "(linguistics) the form of a word after all affixes are removed; 'thematic vowels are part of the stem' ",
      "type": "2",
      "additional stars": "0"
    },
    {
      "id": "11",
      "word": "eat",
      "def": "Take in solid food; 'She was eating a banana'; 'What did you eat for dinner last night?'",
      "type": "2",
      "additional stars": "0"
    },
    {
      "id": "12",
      "word": "mat",
      "def": "Not reflecting light; not glossy; 'flat wall paint'; 'a photograph with a matte finish' ",
      "type": "2",
      "additional stars": "0"
    },
    {
      "id": "13",
      "word": "sea",
      "def": "A division of an ocean or a large body of salt water partially enclosed by land",
      "type": "2",
      "additional stars": "0"
    },
    {
      "id": "14",
      "word": "set",
      "def": "(usually followed by `to' or `for') on the point of or strongly disposed; 'in no fit state to continue'; 'fit to drop'; 'laughing fit to burst'; 'she was fit to scream'; 'primed for a fight'; 'we are set to go at any time' ",
      "type": "2",
      "additional stars": "0"
    },
    {
      "id": "15",
      "word": "tea",
      "def": "A beverage made by steeping tea leaves in water; 'iced tea is a cooling drink'",
      "type": "2",
      "additional stars": "0"
    }
  ]
}