{
  "id": 88,
  "isSpecial": "false",
  "letters": "ratio",
  "words": [
    {
      "id": "1",
      "word": "ratio",
      "def": "The relative magnitudes of two quantities (usually expressed as a quotient)",
      "type": "2",
      "additional stars": "0"
    },
    {
      "id": "2",
      "word": "iota",
      "def": "A tiny or scarcely detectable amount ",
      "type": "2",
      "additional stars": "0"
    },
    {
      "id": "3",
      "word": "riot",
      "def": "A public act of violence by an unruly mob ",
      "type": "1",
      "additional stars": "0"
    },
    {
      "id": "4",
      "word": "taro",
      "def": "Edible starchy tuberous root of taro plants ",
      "type": "1",
      "additional stars": "0"
    },
    {
      "id": "5",
      "word": "tori",
      "def": "A protective, epidermal thickening derived from the stratum corneum and found in high friction areas (ie. the foot sole of a dog).",
      "type": "1",
      "additional stars": "0"
    },
    {
      "id": "6",
      "word": "trio",
      "def": "The cardinal number that is the sum of one and one and one ",
      "type": "2",
      "additional stars": "0"
    },
    {
      "id": "7",
      "word": "air",
      "def": "A mixture of gases (especially oxygen) required for breathing; the stuff that the wind consists of; 'air pollution'; 'a smell of chemicals in the air'; 'open a window and let in some air'; 'I need some fresh air'",
      "type": "2",
      "additional stars": "0"
    },
    {
      "id": "8",
      "word": "art",
      "def": "The products of human creativity; works of art collectively; 'an art exhibition'; 'a fine collection of art' ",
      "type": "2",
      "additional stars": "0"
    },
    {
      "id": "9",
      "word": "oar",
      "def": "An implement used to propel or steer a boat",
      "type": "2",
      "additional stars": "0"
    },
    {
      "id": "10",
      "word": "rat",
      "def": "Any of various long-tailed rodents similar to but larger than a mouse",
      "type": "2",
      "additional stars": "0"
    },
    {
      "id": "11",
      "word": "rot",
      "def": "A state of decay usually accompanied by an offensive odor ",
      "type": "1",
      "additional stars": "0"
    },
    {
      "id": "12",
      "word": "tar",
      "def": "Any of various dark heavy viscid substances obtained as a residue ",
      "type": "1",
      "additional stars": "0"
    },
    {
      "id": "13",
      "word": "tor",
      "def": "A prominent rock or pile of rocks on a hill",
      "type": "1",
      "additional stars": "0"
    }
  ]
}