{
  "id": 78,
  "isSpecial": "false",
  "letters": "straw",
  "words": [
    {
      "id": "1",
      "word": "straw",
      "def": "Of a pale yellow color like straw; straw-colored",
      "type": "2",
      "additional stars": "0"
    },
    {
      "id": "2",
      "word": "swart",
      "def": "Naturally having skin of a dark color; 'a dark-skinned beauty'; 'gold earrings gleamed against her dusky cheeks'; 'a smile on his swarthy face'; '`swart' is archaic' ",
      "type": "2",
      "additional stars": "0"
    },
    {
      "id": "3",
      "word": "star",
      "def": "Indicating the most important performer or role; 'the leading man'; 'prima ballerina'; 'prima donna'; 'a star figure skater'; 'the starring role'; 'a stellar role'; 'a stellar performance' ",
      "type": "2",
      "additional stars": "0"
    },
    {
      "id": "4",
      "word": "swat",
      "def": "A sharp blow",
      "type": "2",
      "additional stars": "0"
    },
    {
      "id": "5",
      "word": "art",
      "def": "The products of human creativity; works of art collectively; 'an art exhibition'; 'a fine collection of art' ",
      "type": "2",
      "additional stars": "0"
    },
    {
      "id": "6",
      "word": "rat",
      "def": "Any of various long-tailed rodents similar to but larger than a mouse",
      "type": "2",
      "additional stars": "0"
    },
    {
      "id": "7",
      "word": "saw",
      "def": "A condensed but memorable saying embodying some important fact of experience that is taken as true by many people ",
      "type": "2",
      "additional stars": "0"
    },
    {
      "id": "8",
      "word": "war",
      "def": "The waging of armed conflict against an enemy; 'thousands of people were killed in the war' ",
      "type": "2",
      "additional stars": "0"
    },
    {
      "id": "9",
      "word": "was",
      "def": "First-person singular simple past tense indicative of 'be'.",
      "type": "2",
      "additional stars": "0"
    }
  ]
}