{
  "id": 67,
  "isSpecial": "false",
  "letters": "parse",
  "words": [
    {
      "id": "1",
      "word": "prase",
      "def": "A variety of cryptocrystalline of a leek-green colour.",
      "type": "1",
      "additional stars": "0"
    },
    {
      "id": "2",
      "word": "spare",
      "def": "Thin and fit; 'the spare figure of a marathon runner'; 'a body kept trim by exercise' ",
      "type": "2",
      "additional stars": "5"
    },
    {
      "id": "3",
      "word": "spear",
      "def": "A long pointed rod used as a tool or weapon ",
      "type": "2",
      "additional stars": "0"
    },
    {
      "id": "4",
      "word": "aper",
      "def": "Someone who copies the words or behavior of another ",
      "type": "2",
      "additional stars": "0"
    },
    {
      "id": "5",
      "word": "apse",
      "def": "A domed or vaulted recess or projection on a building especially the east end of a church; usually contains the altar ",
      "type": "1",
      "additional stars": "0"
    },
    {
      "id": "6",
      "word": "pare",
      "def": "Decrease gradually or bit by bit ",
      "type": "1",
      "additional stars": "0"
    },
    {
      "id": "7",
      "word": "pear",
      "def": "Sweet juicy gritty-textured fruit available in many varieties",
      "type": "1",
      "additional stars": "0"
    },
    {
      "id": "8",
      "word": "rasp",
      "def": "Uttering in an irritated tone ",
      "type": "2",
      "additional stars": "0"
    },
    {
      "id": "9",
      "word": "reap",
      "def": "Gather, as of natural products; 'harvest the grapes' ",
      "type": "1",
      "additional stars": "0"
    },
    {
      "id": "10",
      "word": "sear",
      "def": "(used especially of vegetation) having lost all moisture; 'dried-up grass'; 'the desert was edged with sere vegetation'; 'shriveled leaves on the unwatered seedlings'; 'withered vines' ",
      "type": "2",
      "additional stars": "0"
    },
    {
      "id": "11",
      "word": "spar",
      "def": "Any of various nonmetallic minerals (calcite or feldspar) that are light in color and transparent or translucent and cleavable",
      "type": "1",
      "additional stars": "0"
    },
    {
      "id": "12",
      "word": "ape",
      "def": "Any of various primates with short tails or no tail at all",
      "type": "1",
      "additional stars": "0"
    },
    {
      "id": "13",
      "word": "ear",
      "def": "The sense organ for hearing and equilibrium",
      "type": "2",
      "additional stars": "0"
    },
    {
      "id": "14",
      "word": "era",
      "def": "A period marked by distinctive character or reckoned from a fixed point or event ",
      "type": "2",
      "additional stars": "0"
    },
    {
      "id": "15",
      "word": "pea",
      "def": "Seed of a pea plant used for food",
      "type": "2",
      "additional stars": "0"
    },
    {
      "id": "16",
      "word": "sea",
      "def": "A division of an ocean or a large body of salt water partially enclosed by land",
      "type": "2",
      "additional stars": "0"
    }
  ]
}