{
  "id": 107,
  "isSpecial": "false",
  "letters": "bacon",
  "words": [
    {
      "id": "1",
      "word": "bacon",
      "def": "Back and sides of a hog salted and dried or smoked; usually sliced thin and fried",
      "type": "2",
      "additional stars": "5"
    },
    {
      "id": "2",
      "word": "abo",
      "def": "A dark-skinned member of a race of people living in Australia when Europeans arrived ",
      "type": "2",
      "additional stars": "0"
    },
    {
      "id": "3",
      "word": "bon",
      "def": "'B'usiness 'O'bject 'N'otation, notation for high-level object-oriented analysis.",
      "type": "2",
      "additional stars": "0"
    },
    {
      "id": "4",
      "word": "cab",
      "def": "A compartment at the front of a motor vehicle or locomotive where driver sits",
      "type": "2",
      "additional stars": "0"
    },
    {
      "id": "5",
      "word": "can",
      "def": "Airtight sealed metal container for food or drink or paint etc. ",
      "type": "2",
      "additional stars": "0"
    },
    {
      "id": "6",
      "word": "cob",
      "def": "Nut of any of several trees of the genus Corylus ",
      "type": "2",
      "additional stars": "0"
    },
    {
      "id": "7",
      "word": "con",
      "def": "In opposition to a proposition, opinion, etc.; 'much was written pro and con' ",
      "type": "2",
      "additional stars": "0"
    },
    {
      "id": "8",
      "word": "nab",
      "def": "Tag the base runner to get him out",
      "type": "2",
      "additional stars": "0"
    },
    {
      "id": "9",
      "word": "nob",
      "def": "Informal term for an upper-class or wealthy person ",
      "type": "2",
      "additional stars": "0"
    }
  ]
}