{
  "id": 186,
  "isSpecial": "false",
  "letters": "rabbit",
  "words": [
    {
      "id": "1",
      "word": "rabbit",
      "def": "Any of various burrowing animals of the family Leporidae having long ears and short tails; some domesticated and raised for pets or food ",
      "type": "2",
      "additional stars": "0"
    },
    {
      "id": "2",
      "word": "rabbi",
      "def": "Spiritual leader of a Jewish congregation; qualified to expound and apply Jewish law",
      "type": "2",
      "additional stars": "0"
    },
    {
      "id": "3",
      "word": "barb",
      "def": "An aggressive remark directed at a person like a missile and intended to have a telling effect; 'his parting shot was `drop dead''; 'she threw shafts of sarcasm'; 'she takes a dig at me every chance she gets' ",
      "type": "2",
      "additional stars": "0"
    },
    {
      "id": "4",
      "word": "brit",
      "def": "A native or inhabitant of Great Britain ",
      "type": "2",
      "additional stars": "0"
    },
    {
      "id": "5",
      "word": "air",
      "def": "A mixture of gases (especially oxygen) required for breathing; the stuff that the wind consists of; 'air pollution'; 'a smell of chemicals in the air'; 'open a window and let in some air'; 'I need some fresh air'",
      "type": "2",
      "additional stars": "0"
    },
    {
      "id": "6",
      "word": "art",
      "def": "The products of human creativity; works of art collectively; 'an art exhibition'; 'a fine collection of art' ",
      "type": "2",
      "additional stars": "0"
    },
    {
      "id": "7",
      "word": "bar",
      "def": "A room or establishment where alcoholic drinks are served over a counter; 'he drowned his sorrows in whiskey at the bar' ",
      "type": "2",
      "additional stars": "0"
    },
    {
      "id": "8",
      "word": "bat",
      "def": "Nocturnal mouselike mammal with forelimbs modified to form membranous wings and anatomical adaptations for echolocation by which they navigate ",
      "type": "2",
      "additional stars": "0"
    },
    {
      "id": "9",
      "word": "bib",
      "def": "Top part of an apron; covering the chest",
      "type": "1",
      "additional stars": "0"
    },
    {
      "id": "10",
      "word": "bit",
      "def": "A small piece or quantity of something; 'a spot of tea'; 'a bit of paper'; 'a bit of lint'; 'I gave him a bit of my mind' ",
      "type": "2",
      "additional stars": "0"
    },
    {
      "id": "11",
      "word": "bra",
      "def": "An undergarment worn by women to support their breasts ",
      "type": "1",
      "additional stars": "0"
    },
    {
      "id": "12",
      "word": "rat",
      "def": "Any of various long-tailed rodents similar to but larger than a mouse",
      "type": "1",
      "additional stars": "0"
    },
    {
      "id": "13",
      "word": "rib",
      "def": "Support resembling the rib of an animal",
      "type": "2",
      "additional stars": "0"
    },
    {
      "id": "14",
      "word": "tab",
      "def": "The bill in a restaurant; 'he asked the waiter for the check' ",
      "type": "2",
      "additional stars": "0"
    },
    {
      "id": "15",
      "word": "tar",
      "def": "Any of various dark heavy viscid substances obtained as a residue ",
      "type": "1",
      "additional stars": "0"
    }
  ]
}