{
  "id": 99,
  "isSpecial": "false",
  "letters": "train",
  "words": [
    {
      "id": "1",
      "word": "riant",
      "def": "Showing or feeling mirth or pleasure or happiness; 'laughing children' ",
      "type": "1",
      "additional stars": "0"
    },
    {
      "id": "2",
      "word": "train",
      "def": "Public transport provided by a line of railway cars coupled together and drawn by a locomotive; 'express trains don't stop at Princeton Junction' ",
      "type": "2",
      "additional stars": "2"
    },
    {
      "id": "3",
      "word": "rain",
      "def": "Water falling in drops from vapor condensed in the atmosphere ",
      "type": "2",
      "additional stars": "0"
    },
    {
      "id": "4",
      "word": "rant",
      "def": "A loud bombastic declamation expressed with strong emotion ",
      "type": "2",
      "additional stars": "0"
    },
    {
      "id": "5",
      "word": "tain",
      "def": "Thin tin plate",
      "type": "1",
      "additional stars": "0"
    },
    {
      "id": "6",
      "word": "air",
      "def": "A mixture of gases (especially oxygen) required for breathing; the stuff that the wind consists of; 'air pollution'; 'a smell of chemicals in the air'; 'open a window and let in some air'; 'I need some fresh air'",
      "type": "2",
      "additional stars": "0"
    },
    {
      "id": "7",
      "word": "ant",
      "def": "Social insect living in organized colonies; characteristically the males and fertile queen have wings during breeding season; wingless sterile females are the workers ",
      "type": "2",
      "additional stars": "0"
    },
    {
      "id": "8",
      "word": "art",
      "def": "The products of human creativity; works of art collectively; 'an art exhibition'; 'a fine collection of art' ",
      "type": "2",
      "additional stars": "0"
    },
    {
      "id": "9",
      "word": "rat",
      "def": "Any of various long-tailed rodents similar to but larger than a mouse",
      "type": "2",
      "additional stars": "0"
    },
    {
      "id": "10",
      "word": "tan",
      "def": "Of a light yellowish-brown color",
      "type": "2",
      "additional stars": "0"
    },
    {
      "id": "11",
      "word": "tar",
      "def": "Any of various dark heavy viscid substances obtained as a residue ",
      "type": "2",
      "additional stars": "0"
    },
    {
      "id": "12",
      "word": "tin",
      "def": "A silvery malleable metallic element that resists corrosion; used in many alloys and to coat other metals to prevent corrosion; obtained chiefly from cassiterite where it occurs as tin oxide ",
      "type": "2",
      "additional stars": "0"
    }
  ]
}