{
  "id": 70,
  "isSpecial": "false",
  "letters": "acute",
  "words": [
    {
      "id": "1",
      "word": "acute",
      "def": "Having or experiencing a rapid onset and short but severe course; 'acute appendicitis'; 'the acute phase of the illness'; 'acute patients' ",
      "type": "2",
      "additional stars": "0"
    },
    {
      "id": "2",
      "word": "cute",
      "def": "Attractive especially by means of smallness or prettiness or quaintness; 'a cute kid with pigtails'; 'a cute little apartment'; 'cunning kittens'; 'a cunning baby' ",
      "type": "2",
      "additional stars": "0"
    },
    {
      "id": "3",
      "word": "ace",
      "def": "Of the highest quality; 'an ace reporter'; 'a crack shot'; 'a first-rate golfer'; 'a super party'; 'played top-notch tennis'; 'an athlete in tiptop condition'; 'she is absolutely tops' ",
      "type": "2",
      "additional stars": "0"
    },
    {
      "id": "4",
      "word": "act",
      "def": "A legal document codifying the result of deliberations of a committee or society or legislative body ",
      "type": "2",
      "additional stars": "0"
    },
    {
      "id": "5",
      "word": "cat",
      "def": "Feline mammal usually having thick soft fur and no ability to roar: domestic cats; wildcats ",
      "type": "2",
      "additional stars": "0"
    },
    {
      "id": "6",
      "word": "cue",
      "def": "An actor's line that immediately precedes and serves as a reminder for some action or speech",
      "type": "1",
      "additional stars": "0"
    },
    {
      "id": "7",
      "word": "cut",
      "def": "Separated into parts or laid open or penetrated with a sharp edge or instrument; 'the cut surface was mottled'; 'cut tobacco'; 'blood from his cut forehead'; 'bandages on her cut wrists' ",
      "type": "2",
      "additional stars": "0"
    },
    {
      "id": "8",
      "word": "eat",
      "def": "Take in solid food; 'She was eating a banana'; 'What did you eat for dinner last night?'",
      "type": "2",
      "additional stars": "0"
    },
    {
      "id": "9",
      "word": "tea",
      "def": "A beverage made by steeping tea leaves in water; 'iced tea is a cooling drink'",
      "type": "2",
      "additional stars": "0"
    }
  ]
}