{
  "id": 82,
  "isSpecial": "false",
  "letters": "false",
  "words": [
    {
      "id": "1",
      "word": "false",
      "def": "In a disloyal and faithless manner; 'he behaved treacherously'; 'his wife played him false' ",
      "type": "2",
      "additional stars": "0"
    },
    {
      "id": "2",
      "word": "flea",
      "def": "Any wingless bloodsucking parasitic insect noted for ability to leap",
      "type": "2",
      "additional stars": "0"
    },
    {
      "id": "3",
      "word": "lase",
      "def": "To use a laser beam on, as for cutting.",
      "type": "1",
      "additional stars": "0"
    },
    {
      "id": "4",
      "word": "leaf",
      "def": "The main organ of photosynthesis and transpiration in higher plants ",
      "type": "2",
      "additional stars": "0"
    },
    {
      "id": "5",
      "word": "safe",
      "def": "Free from danger or the risk of harm; 'a safe trip'; 'you will be safe here'; 'a safe place'; 'a safe bet' ",
      "type": "2",
      "additional stars": "0"
    },
    {
      "id": "6",
      "word": "sale",
      "def": "A particular instance of selling; 'he has just made his first sale'; 'they had to complete the sale before the banks closed'",
      "type": "2",
      "additional stars": "0"
    },
    {
      "id": "7",
      "word": "seal",
      "def": "Fastener consisting of a resinous composition that is plastic when warm; used for sealing documents and parcels and letters ",
      "type": "2",
      "additional stars": "0"
    },
    {
      "id": "8",
      "word": "self",
      "def": "(used as a combining form) relating to--of or by or to or from or for--the self; 'self-knowledge'; 'self- proclaimed'; 'self-induced'",
      "type": "2",
      "additional stars": "0"
    },
    {
      "id": "9",
      "word": "elf",
      "def": "(folklore) fairies that are somewhat mischievous ",
      "type": "2",
      "additional stars": "0"
    },
    {
      "id": "10",
      "word": "sea",
      "def": "A division of an ocean or a large body of salt water partially enclosed by land",
      "type": "2",
      "additional stars": "0"
    }
  ]
}