{
  "id": 111,
  "isSpecial": "false",
  "letters": "round",
  "words": [
    {
      "id": "1",
      "word": "round",
      "def": "From beginning to end; throughout; 'It rains all year round on Skye'; 'frigid weather the year around' ",
      "type": "2",
      "additional stars": "5"
    },
    {
      "id": "2",
      "word": "dour",
      "def": "Stubbornly unyielding; 'dogged persistence'; 'dour determination'; 'the most vocal and pertinacious of all the critics'; 'a mind not gifted to discover truth but tenacious to hold it'- T.S.Eliot; 'men tenacious of opinion' ",
      "type": "2",
      "additional stars": "0"
    },
    {
      "id": "3",
      "word": "undo",
      "def": "Cancel, annul, or reverse an action or its effect; 'I wish I could undo my actions'",
      "type": "2",
      "additional stars": "0"
    },
    {
      "id": "4",
      "word": "don",
      "def": "A Spanish gentleman or nobleman",
      "type": "2",
      "additional stars": "0"
    },
    {
      "id": "5",
      "word": "dor",
      "def": "A large European dung beetle, Geotrupes stercorarius, that makes a droning noise while flying.",
      "type": "2",
      "additional stars": "0"
    },
    {
      "id": "6",
      "word": "dun",
      "def": "Of a dull greyish brown to brownish grey color; 'the dun and dreary prairie'",
      "type": "1",
      "additional stars": "0"
    },
    {
      "id": "7",
      "word": "duo",
      "def": "Two items of the same kind ",
      "type": "1",
      "additional stars": "0"
    },
    {
      "id": "8",
      "word": "nod",
      "def": "A sign of assent or salutation or command",
      "type": "2",
      "additional stars": "0"
    },
    {
      "id": "9",
      "word": "our",
      "def": "Belonging to us.",
      "type": "2",
      "additional stars": "0"
    },
    {
      "id": "10",
      "word": "rod",
      "def": "A long thin implement made of metal or wood",
      "type": "2",
      "additional stars": "0"
    },
    {
      "id": "11",
      "word": "run",
      "def": "To move along, faster than walking",
      "type": "2",
      "additional stars": "0"
    },
    {
      "id": "12",
      "word": "urn",
      "def": "A large vase that usually has a pedestal or feet",
      "type": "2",
      "additional stars": "0"
    }
  ]
}