{
  "id": 185,
  "isSpecial": "false",
  "letters": "jungle",
  "words": [
    {
      "id": "1",
      "word": "jungle",
      "def": "A location marked by an intense competition and struggle for survival",
      "type": "2",
      "additional stars": "0"
    },
    {
      "id": "2",
      "word": "lunge",
      "def": "The act of moving forward suddenly ",
      "type": "2",
      "additional stars": "0"
    },
    {
      "id": "3",
      "word": "glen",
      "def": "A narrow secluded valley (in the mountains)",
      "type": "1",
      "additional stars": "0"
    },
    {
      "id": "4",
      "word": "glue",
      "def": "Cement consisting of a sticky substance that is used as an adhesive ",
      "type": "2",
      "additional stars": "0"
    },
    {
      "id": "5",
      "word": "lung",
      "def": "Either of two saclike respiratory organs in the chest of vertebrates; serves to remove carbon dioxide and provide oxygen to the blood",
      "type": "1",
      "additional stars": "0"
    },
    {
      "id": "6",
      "word": "gel",
      "def": "A colloid in a more solid form than a sol ",
      "type": "2",
      "additional stars": "0"
    },
    {
      "id": "7",
      "word": "gun",
      "def": "A weapon that discharges a missile at high velocity (especially from a metal tube or barrel)",
      "type": "2",
      "additional stars": "0"
    },
    {
      "id": "8",
      "word": "jug",
      "def": "A large bottle with a narrow mouth",
      "type": "2",
      "additional stars": "0"
    },
    {
      "id": "9",
      "word": "leg",
      "def": "A human limb; commonly used to refer to a whole limb but technically only the part of the limb between the knee and ankle",
      "type": "2",
      "additional stars": "0"
    }
  ]
}