{
  "id": 25,
  "isSpecial": "false",
  "letters": "weed",
  "words": [
    {
      "id": "1",
      "word": "weed",
      "def": "Any plant that crowds out cultivated plants ",
      "type": "2",
      "additional stars": "0"
    },
    {
      "id": "2",
      "word": "dew",
      "def": "Water that has condensed on a cool surface overnight from water vapor in the air; 'in the morning the grass was wet with dew'",
      "type": "2",
      "additional stars": "0"
    },
    {
      "id": "3",
      "word": "ewe",
      "def": "Ship",
      "type": "2",
      "additional stars": "0"
    },
    {
      "id": "4",
      "word": "wed",
      "def": "Having been taken in marriage ",
      "type": "2",
      "additional stars": "0"
    },
    {
      "id": "5",
      "word": "wee",
      "def": "(used informally) very small; 'a wee tot' ",
      "type": "2",
      "additional stars": "0"
    }
  ]
}