{
  "id": 116,
  "isSpecial": "false",
  "letters": "smart",
  "words": [
    {
      "id": "1",
      "word": "smart",
      "def": "Showing mental alertness and calculation and resourcefulness ",
      "type": "2",
      "additional stars": "0"
    },
    {
      "id": "2",
      "word": "arms",
      "def": "Weapons considered collectively ",
      "type": "2",
      "additional stars": "0"
    },
    {
      "id": "3",
      "word": "arts",
      "def": "Studies intended to provide general knowledge and intellectual skills (rather than occupational or professional skills); 'the college of arts and sciences' ",
      "type": "1",
      "additional stars": "0"
    },
    {
      "id": "4",
      "word": "mart",
      "def": "An area in a town where a public mercantile establishment is set up ",
      "type": "2",
      "additional stars": "0"
    },
    {
      "id": "5",
      "word": "mast",
      "def": "A vertical spar for supporting sails",
      "type": "2",
      "additional stars": "0"
    },
    {
      "id": "6",
      "word": "star",
      "def": "Indicating the most important performer or role; 'the leading man'; 'prima ballerina'; 'prima donna'; 'a star figure skater'; 'the starring role'; 'a stellar role'; 'a stellar performance' ",
      "type": "2",
      "additional stars": "0"
    },
    {
      "id": "7",
      "word": "tram",
      "def": "A conveyance that transports passengers or freight in carriers suspended from cables and supported by a series of towers ",
      "type": "2",
      "additional stars": "0"
    },
    {
      "id": "8",
      "word": "arm",
      "def": "A human limb; technically the part of the superior limb between the shoulder and the elbow but commonly used to refer to the whole superior limb",
      "type": "2",
      "additional stars": "0"
    },
    {
      "id": "9",
      "word": "art",
      "def": "The products of human creativity; works of art collectively; 'an art exhibition'; 'a fine collection of art' ",
      "type": "2",
      "additional stars": "0"
    },
    {
      "id": "10",
      "word": "mat",
      "def": "Not reflecting light; not glossy; 'flat wall paint'; 'a photograph with a matte finish' ",
      "type": "2",
      "additional stars": "0"
    },
    {
      "id": "11",
      "word": "rat",
      "def": "Any of various long-tailed rodents similar to but larger than a mouse",
      "type": "2",
      "additional stars": "0"
    },
    {
      "id": "12",
      "word": "tar",
      "def": "Any of various dark heavy viscid substances obtained as a residue ",
      "type": "1",
      "additional stars": "0"
    }
  ]
}