{
  "id": 89,
  "isSpecial": "false",
  "letters": "stove",
  "words": [
    {
      "id": "1",
      "word": "stove",
      "def": "A kitchen appliance used for cooking food; 'dinner was already on the stove' ",
      "type": "2",
      "additional stars": "0"
    },
    {
      "id": "2",
      "word": "vest",
      "def": "A man's sleeveless garment worn underneath a coat ",
      "type": "2",
      "additional stars": "0"
    },
    {
      "id": "3",
      "word": "veto",
      "def": "A vote that blocks a decision",
      "type": "2",
      "additional stars": "0"
    },
    {
      "id": "4",
      "word": "vote",
      "def": "A choice that is made by counting the number of people in favor of each alternative; 'there were only 17 votes in favor of the motion'; 'they allowed just one vote per person' ",
      "type": "2",
      "additional stars": "0"
    },
    {
      "id": "5",
      "word": "set",
      "def": "(usually followed by `to' or `for') on the point of or strongly disposed; 'in no fit state to continue'; 'fit to drop'; 'laughing fit to burst'; 'she was fit to scream'; 'primed for a fight'; 'we are set to go at any time' ",
      "type": "2",
      "additional stars": "0"
    },
    {
      "id": "6",
      "word": "sot",
      "def": "A chronic drinker ",
      "type": "1",
      "additional stars": "0"
    },
    {
      "id": "7",
      "word": "toe",
      "def": "One of the digits of the foot",
      "type": "2",
      "additional stars": "0"
    },
    {
      "id": "8",
      "word": "vet",
      "def": "A doctor who practices veterinary medicine ",
      "type": "2",
      "additional stars": "0"
    }
  ]
}