{
  "id": 40,
  "isSpecial": "false",
  "letters": "mouse",
  "words": [
    {
      "id": "1",
      "word": "mouse",
      "def": "Any of numerous small rodents typically resembling diminutive rats having pointed snouts and small ears on elongated bodies with slender usually hairless tails",
      "type": "2",
      "additional stars": "0"
    },
    {
      "id": "2",
      "word": "muse",
      "def": "In ancient Greek mythology any of 9 daughters of Zeus and Mnemosyne; protector of an art or science",
      "type": "1",
      "additional stars": "0"
    },
    {
      "id": "3",
      "word": "some",
      "def": "(of quantities) imprecise but fairly close to correct; 'lasted approximately an hour'; 'in just about a minute'; 'he's about 30 years old'; 'I've had about all I can stand'; 'we meet about once a month'; 'some forty people came'; 'weighs...",
      "type": "2",
      "additional stars": "0"
    },
    {
      "id": "4",
      "word": "emo",
      "def": "A particular style of hardcore punk rock",
      "type": "2",
      "additional stars": "0"
    },
    {
      "id": "5",
      "word": "sum",
      "def": "A quantity of money; 'he borrowed a large sum'; 'the amount he had in cash was insufficient' ",
      "type": "2",
      "additional stars": "0"
    },
    {
      "id": "6",
      "word": "use",
      "def": "The act of using; 'he warned against the use of narcotic drugs'; 'skilled in the utilization of computers' ",
      "type": "2",
      "additional stars": "0"
    }
  ]
}