{
  "id": 32,
  "isSpecial": "false",
  "letters": "beat",
  "words": [
    {
      "id": "1",
      "word": "abet",
      "def": "Assist or encourage, usually in some wrongdoing",
      "type": "2",
      "additional stars": "0"
    },
    {
      "id": "2",
      "word": "beat",
      "def": "Very tired; 'was all in at the end of the day'; 'so beat I could flop down and go to sleep anywhere'; 'bushed after all that exercise'; 'I'm dead after that long trip' ",
      "type": "2",
      "additional stars": "0"
    },
    {
      "id": "3",
      "word": "beta",
      "def": "Second in order of importance; 'the candidate, considered a beta male, was perceived to be unable to lead his party to victory'",
      "type": "2",
      "additional stars": "0"
    },
    {
      "id": "4",
      "word": "bat",
      "def": "Nocturnal mouselike mammal with forelimbs modified to form membranous wings and anatomical adaptations for echolocation by which they navigate ",
      "type": "2",
      "additional stars": "0"
    },
    {
      "id": "5",
      "word": "bet",
      "def": "The money risked on a gamble ",
      "type": "2",
      "additional stars": "0"
    },
    {
      "id": "6",
      "word": "eat",
      "def": "Take in solid food; 'She was eating a banana'; 'What did you eat for dinner last night?'",
      "type": "2",
      "additional stars": "0"
    },
    {
      "id": "7",
      "word": "tab",
      "def": "The bill in a restaurant; 'he asked the waiter for the check' ",
      "type": "2",
      "additional stars": "0"
    },
    {
      "id": "8",
      "word": "tea",
      "def": "A beverage made by steeping tea leaves in water; 'iced tea is a cooling drink'",
      "type": "2",
      "additional stars": "0"
    }
  ]
}