{
  "id": 20,
  "isSpecial": "false",
  "letters": "pray",
  "words": [
    {
      "id": "1",
      "word": "pray",
      "def": "Address a deity, a prophet, a saint or an object of worship; say a prayer; 'pray to the Lord'",
      "type": "2",
      "additional stars": "0"
    },
    {
      "id": "2",
      "word": "pay",
      "def": "Something that remunerates; 'wages were paid by check'; 'he wasted his pay on drink'; 'they saved a quarter of all their earnings' ",
      "type": "2",
      "additional stars": "0"
    },
    {
      "id": "3",
      "word": "pry",
      "def": "A heavy iron lever with one end forged into a wedge ",
      "type": "2",
      "additional stars": "0"
    },
    {
      "id": "4",
      "word": "ray",
      "def": "A column of light (as from a beacon) ",
      "type": "2",
      "additional stars": "0"
    },
    {
      "id": "5",
      "word": "yap",
      "def": "Informal terms for the mouth ",
      "type": "2",
      "additional stars": "0"
    }
  ]
}