{
  "id": 137,
  "isSpecial": "false",
  "letters": "tramp",
  "words": [
    {
      "id": "1",
      "word": "tramp",
      "def": "A disreputable vagrant; 'a homeless tramp'; 'he tried to help the really down-and-out bums' ",
      "type": "2",
      "additional stars": "5"
    },
    {
      "id": "2",
      "word": "mart",
      "def": "An area in a town where a public mercantile establishment is set up ",
      "type": "2",
      "additional stars": "0"
    },
    {
      "id": "3",
      "word": "part",
      "def": "In part; in some degree; not wholly; 'I felt partly to blame'; 'He was partially paralyzed' ",
      "type": "2",
      "additional stars": "0"
    },
    {
      "id": "4",
      "word": "pram",
      "def": "A small vehicle with four wheels in which a baby or child is pushed around ",
      "type": "2",
      "additional stars": "0"
    },
    {
      "id": "5",
      "word": "ramp",
      "def": "An inclined surface connecting two levels ",
      "type": "2",
      "additional stars": "0"
    },
    {
      "id": "6",
      "word": "rapt",
      "def": "Feeling great rapture or delight ",
      "type": "2",
      "additional stars": "0"
    },
    {
      "id": "7",
      "word": "tamp",
      "def": "A tool for tamping (e.g., for tamping tobacco into a pipe bowl or a charge into a drill hole etc.) ",
      "type": "2",
      "additional stars": "0"
    },
    {
      "id": "8",
      "word": "tram",
      "def": "A conveyance that transports passengers or freight in carriers suspended from cables and supported by a series of towers ",
      "type": "2",
      "additional stars": "0"
    },
    {
      "id": "9",
      "word": "trap",
      "def": "A device in which something (usually an animal) can be caught and penned",
      "type": "2",
      "additional stars": "0"
    },
    {
      "id": "10",
      "word": "map",
      "def": "A diagrammatic representation of the earth's surface (or part of it)",
      "type": "2",
      "additional stars": "0"
    },
    {
      "id": "11",
      "word": "mat",
      "def": "Not reflecting light; not glossy; 'flat wall paint'; 'a photograph with a matte finish' ",
      "type": "2",
      "additional stars": "0"
    },
    {
      "id": "12",
      "word": "rap",
      "def": "A reproach for some lapse or misdeed; 'he took the blame for it'; 'it was a bum rap' ",
      "type": "2",
      "additional stars": "0"
    },
    {
      "id": "13",
      "word": "rat",
      "def": "Any of various long-tailed rodents similar to but larger than a mouse",
      "type": "2",
      "additional stars": "0"
    },
    {
      "id": "14",
      "word": "tap",
      "def": "The sound made by a gentle blow ",
      "type": "2",
      "additional stars": "0"
    }
  ]
}