{
  "id": 62,
  "isSpecial": "false",
  "letters": "tense",
  "words": [
    {
      "id": "1",
      "word": "tense",
      "def": "In or of a state of physical or nervous tension ",
      "type": "2",
      "additional stars": "0"
    },
    {
      "id": "2",
      "word": "nest",
      "def": "A structure in which animals lay eggs or give birth to their young",
      "type": "2",
      "additional stars": "0"
    },
    {
      "id": "3",
      "word": "sent",
      "def": "Caused or enabled to go or be conveyed or transmitted ",
      "type": "2",
      "additional stars": "0"
    },
    {
      "id": "4",
      "word": "teen",
      "def": "Being of the age 13 through 19; 'teenage mothers'; 'the teen years' ",
      "type": "2",
      "additional stars": "0"
    },
    {
      "id": "5",
      "word": "nee",
      "def": "(meaning literally `born') used to indicate the maiden or family name of a married woman; 'Hillary Clinton nee Rodham'",
      "type": "1",
      "additional stars": "0"
    },
    {
      "id": "6",
      "word": "see",
      "def": "The seat within a bishop's diocese where his cathedral is located",
      "type": "2",
      "additional stars": "0"
    },
    {
      "id": "7",
      "word": "set",
      "def": "(usually followed by `to' or `for') on the point of or strongly disposed; 'in no fit state to continue'; 'fit to drop'; 'laughing fit to burst'; 'she was fit to scream'; 'primed for a fight'; 'we are set to go at any time' ",
      "type": "2",
      "additional stars": "0"
    },
    {
      "id": "8",
      "word": "ten",
      "def": "Being one more than nine ",
      "type": "2",
      "additional stars": "0"
    }
  ]
}