{
  "id": 183,
  "isSpecial": "false",
  "letters": "rugged",
  "words": [
    {
      "id": "1",
      "word": "grudge",
      "def": "A resentment strong enough to justify retaliation; 'holding a grudge'; 'settling a score' ",
      "type": "2",
      "additional stars": "0"
    },
    {
      "id": "2",
      "word": "rugged",
      "def": "Sturdy and strong in constitution or construction; enduring; 'with a house full of boys you have to have rugged furniture' ",
      "type": "2",
      "additional stars": "0"
    },
    {
      "id": "3",
      "word": "dreg",
      "def": "A small amount of residue",
      "type": "2",
      "additional stars": "0"
    },
    {
      "id": "4",
      "word": "drug",
      "def": "A substance that is used as a medicine or narcotic",
      "type": "2",
      "additional stars": "0"
    },
    {
      "id": "5",
      "word": "rude",
      "def": "Socially incorrect in behavior; 'resentment flared at such an unmannered intrusion' ",
      "type": "2",
      "additional stars": "0"
    },
    {
      "id": "6",
      "word": "urge",
      "def": "An instinctive motive; 'profound religious impulses' ",
      "type": "2",
      "additional stars": "0"
    },
    {
      "id": "7",
      "word": "dug",
      "def": "An udder or breast or teat",
      "type": "2",
      "additional stars": "0"
    },
    {
      "id": "8",
      "word": "egg",
      "def": "Animal reproductive body consisting of an ovum or embryo together with nutritive and protective envelopes; especially the thin-shelled reproductive body laid by e.g. female birds",
      "type": "2",
      "additional stars": "0"
    },
    {
      "id": "9",
      "word": "red",
      "def": "Of a color at the end of the color spectrum (next to orange); resembling the color of blood or cherries or tomatoes or rubies ",
      "type": "2",
      "additional stars": "0"
    },
    {
      "id": "10",
      "word": "rue",
      "def": "European strong-scented perennial herb with grey-green bitter-tasting leaves; an irritant similar to poison ivy ",
      "type": "2",
      "additional stars": "0"
    },
    {
      "id": "11",
      "word": "rug",
      "def": "Floor covering consisting of a piece of thick heavy fabric (usually with nap or pile) ",
      "type": "2",
      "additional stars": "0"
    }
  ]
}