{
  "id": 94,
  "isSpecial": "false",
  "letters": "drive",
  "words": [
    {
      "id": "1",
      "word": "diver",
      "def": "Someone who works underwater ",
      "type": "2",
      "additional stars": "0"
    },
    {
      "id": "2",
      "word": "drive",
      "def": "The act of applying force to propel something; 'after reaching the desired velocity the drive is cut off' ",
      "type": "2",
      "additional stars": "0"
    },
    {
      "id": "3",
      "word": "dire",
      "def": "Fraught with extreme danger; nearly hopeless; 'a desperate illness'; 'on all fronts the Allies were in a desperate situation due to lack of materiel'- G.C.Marshall; 'a dire emergency' ",
      "type": "2",
      "additional stars": "0"
    },
    {
      "id": "4",
      "word": "dive",
      "def": "A cheap disreputable nightclub or dance hall ",
      "type": "1",
      "additional stars": "0"
    },
    {
      "id": "5",
      "word": "ride",
      "def": "A journey in a vehicle (usually an automobile); 'he took the family for a drive in his new car' ",
      "type": "2",
      "additional stars": "0"
    },
    {
      "id": "6",
      "word": "rive",
      "def": "Tear or be torn violently; 'The curtain ripped from top to bottom'; 'pull the cooked chicken into strips' ",
      "type": "2",
      "additional stars": "0"
    },
    {
      "id": "7",
      "word": "vire",
      "def": "An arrow, having a rotary motion, formerly used with the crossbow.",
      "type": "1",
      "additional stars": "0"
    },
    {
      "id": "8",
      "word": "die",
      "def": "A small cube with 1 to 6 spots on the six faces; used in gambling to generate random numbers ",
      "type": "2",
      "additional stars": "0"
    },
    {
      "id": "9",
      "word": "ire",
      "def": "A strong emotion; a feeling that is oriented toward some real or supposed grievance ",
      "type": "2",
      "additional stars": "0"
    },
    {
      "id": "10",
      "word": "red",
      "def": "Of a color at the end of the color spectrum (next to orange); resembling the color of blood or cherries or tomatoes or rubies ",
      "type": "2",
      "additional stars": "0"
    },
    {
      "id": "11",
      "word": "vie",
      "def": "Compete for something; engage in a contest; measure oneself against others ",
      "type": "1",
      "additional stars": "0"
    }
  ]
}