{
  "id": 100,
  "isSpecial": "false",
  "letters": "sharp",
  "words": [
    {
      "id": "1",
      "word": "sharp",
      "def": "Changing suddenly in direction and degree; 'the road twists sharply after the light'; 'turn sharp left here'; 'the visor was acutely peaked'; 'her shoes had acutely pointed toes' ",
      "type": "2",
      "additional stars": "0"
    },
    {
      "id": "2",
      "word": "harp",
      "def": "A chordophone that has a triangular frame consisting of a sounding board and a pillar and a curved neck; the strings stretched between the neck and the soundbox are plucked with the fingers",
      "type": "2",
      "additional stars": "0"
    },
    {
      "id": "3",
      "word": "hasp",
      "def": "A fastener for a door or lid; a hinged metal plate is fitted over a staple and is locked with a pin or padlock",
      "type": "2",
      "additional stars": "0"
    },
    {
      "id": "4",
      "word": "rasp",
      "def": "Uttering in an irritated tone ",
      "type": "2",
      "additional stars": "0"
    },
    {
      "id": "5",
      "word": "spar",
      "def": "Any of various nonmetallic minerals (calcite or feldspar) that are light in color and transparent or translucent and cleavable",
      "type": "2",
      "additional stars": "0"
    },
    {
      "id": "6",
      "word": "ash",
      "def": "The residue that remains when something is burned",
      "type": "2",
      "additional stars": "0"
    },
    {
      "id": "7",
      "word": "hap",
      "def": "An accidental happening; 'he recorded all the little haps and mishaps of his life'",
      "type": "2",
      "additional stars": "0"
    },
    {
      "id": "8",
      "word": "pas",
      "def": "(ballet) a step in dancing (especially in classical ballet)",
      "type": "1",
      "additional stars": "0"
    },
    {
      "id": "9",
      "word": "rap",
      "def": "A reproach for some lapse or misdeed; 'he took the blame for it'; 'it was a bum rap' ",
      "type": "2",
      "additional stars": "0"
    },
    {
      "id": "10",
      "word": "sap",
      "def": "A watery solution of sugars, salts, and minerals that circulates through the vascular system of a plant",
      "type": "1",
      "additional stars": "0"
    },
    {
      "id": "11",
      "word": "spa",
      "def": "A health resort near a spring or at the seaside ",
      "type": "2",
      "additional stars": "0"
    }
  ]
}